{
    "className": "org.joget.apps.form.model.Form",
    "elements": [
        {
            "className": "org.joget.apps.form.model.Section",
            "elements": [{
                "className": "org.joget.apps.form.model.Column",
                "elements": [{
                    "className": "org.joget.apps.form.lib.SubForm",
                    "properties": {
                        "elementUniqueKey": "4926",
                        "formDefId": "gitMergeForm",
                        "id": "subform",
                        "label": "",
                        "loadBinder": {
                            "className": "org.joget.apps.form.lib.WorkflowFormBinder",
                            "properties": {}
                        },
                        "noframe": "true",
                        "parentSubFormId": "",
                        "readonly": "true",
                        "readonlyLabel": "true",
                        "storeBinder": {
                            "className": "org.joget.apps.form.lib.WorkflowFormBinder",
                            "properties": {}
                        },
                        "subFormParentId": ""
                    }
                }],
                "properties": {
                    "elementUniqueKey": "4924",
                    "width": "100%"
                }
            }],
            "properties": {
                "elementUniqueKey": "4920",
                "id": "section1",
                "label": "",
                "loadBinder": {
                    "className": "",
                    "properties": {}
                },
                "permission": {
                    "className": "",
                    "properties": {}
                },
                "regex": "",
                "storeBinder": {
                    "className": "",
                    "properties": {}
                },
                "visibilityControl": "",
                "visibilityValue": ""
            }
        },
        {
            "className": "org.joget.apps.form.model.Section",
            "elements": [{
                "className": "org.joget.apps.form.model.Column",
                "elements": [
                    {
                        "className": "org.joget.apps.form.lib.HiddenField",
                        "properties": {
                            "elementUniqueKey": "4936",
                            "id": "approval_status",
                            "useDefaultWhenEmpty": "",
                            "value": "",
                            "workflowVariable": ""
                        }
                    },
                    {
                        "className": "org.joget.apps.form.lib.SubForm",
                        "properties": {
                            "elementUniqueKey": "4937",
                            "formDefId": "gitMergeForm_approval_action",
                            "id": "approval",
                            "label": "",
                            "loadBinder": {
                                "className": "org.joget.apps.form.lib.WorkflowFormBinder",
                                "properties": {}
                            },
                            "noframe": "true",
                            "parentSubFormId": "last_approve",
                            "readonly": "",
                            "readonlyLabel": "",
                            "storeBinder": {
                                "className": "org.joget.apps.form.lib.WorkflowFormBinder",
                                "properties": {}
                            },
                            "subFormParentId": "parent_id"
                        }
                    }
                ],
                "properties": {
                    "elementUniqueKey": "4933",
                    "width": "100%"
                }
            }],
            "properties": {
                "elementUniqueKey": "4927",
                "id": "section2",
                "label": "Approval",
                "loadBinder": {
                    "className": "",
                    "properties": {}
                },
                "permission": {
                    "className": "",
                    "properties": {}
                },
                "regex": "",
                "storeBinder": {
                    "className": "",
                    "properties": {}
                },
                "visibilityControl": "",
                "visibilityValue": ""
            }
        },
        {
            "className": "org.joget.apps.form.model.Section",
            "elements": [{
                "className": "org.joget.apps.form.model.Column",
                "elements": [{
                    "className": "org.joget.plugin.enterprise.FormGrid",
                    "properties": {
                        "disabledAdd": "true",
                        "disabledDelete": "true",
                        "elementUniqueKey": "4944",
                        "enableSorting": "",
                        "errorMessage": "Invalid number of rows.",
                        "formDefId": "gitMergeForm_approval_action",
                        "height": "500",
                        "id": "trails",
                        "label": "",
                        "loadBinder": {
                            "className": "org.joget.plugin.enterprise.MultirowFormBinder",
                            "properties": {
                                "foreignKey": "parent_id",
                                "formDefId": "gitMergeForm_approval_action"
                            }
                        },
                        "options": [
                            {
                                "format": "",
                                "formatType": "text",
                                "label": "Approver",
                                "value": "approver",
                                "width": ""
                            },
                            {
                                "format": "",
                                "formatType": "text",
                                "label": "Status",
                                "value": "status",
                                "width": ""
                            },
                            {
                                "format": "",
                                "formatType": "html",
                                "label": "Remarks",
                                "value": "remarks",
                                "width": ""
                            },
                            {
                                "format": "",
                                "formatType": "text",
                                "label": "Date",
                                "value": "approval_date",
                                "width": ""
                            }
                        ],
                        "readonly": "true",
                        "readonlyLabel": "",
                        "showRowNumber": "",
                        "sortField": "sort",
                        "storeBinder": {
                            "className": "org.joget.plugin.enterprise.MultirowFormBinder",
                            "properties": {
                                "foreignKey": "parent_id",
                                "formDefId": "gitMergeForm_approval_action"
                            }
                        },
                        "submit-label-normal": "Submit",
                        "submit-label-readonly": "Close",
                        "validateMaxRow": "",
                        "validateMinRow": "",
                        "width": "900"
                    }
                }],
                "properties": {
                    "elementUniqueKey": "4942",
                    "width": "100%"
                }
            }],
            "properties": {
                "elementUniqueKey": "4938",
                "id": "section3",
                "label": "Approval Trails",
                "loadBinder": {
                    "className": "",
                    "properties": {}
                },
                "permission": {
                    "className": "",
                    "properties": {}
                },
                "regex": "",
                "storeBinder": {
                    "className": "",
                    "properties": {}
                },
                "visibilityControl": "",
                "visibilityValue": ""
            }
        }
    ],
    "properties": {
        "description": "",
        "elementUniqueKey": "4919",
        "id": "gitMergeForm_approval",
        "loadBinder": {
            "className": "org.joget.apps.form.lib.WorkflowFormBinder",
            "properties": {}
        },
        "name": "Git Merge Form Approval",
        "noPermissionMessage": "",
        "permission": {
            "className": "",
            "properties": {}
        },
        "storeBinder": {
            "className": "org.joget.apps.form.lib.WorkflowFormBinder",
            "properties": {}
        },
        "tableName": "git"
    }
}